{
    "transactions": [
        "{\"amount\": 2e-05, \"sender_wallet\": \"8e15de0a18fea0570c2b699ab5f5f9a99c2b3bc988947215ce8940f3880dccb6\", \"private_key\": \"dfd9a4145114704f8df3ee8d64c48b6a18b766317d68fec78e662c13201c0701\", \"receiver_wallet\": \"d62568c31f02de8b6874e4f2938b3309179d3d772b23f89f67542f926a063bc0\", \"tx\": \"4bc00d855cf1ce26d2b2099dfd9194906d3ecd63f554d8d5c1130fd7b18cac7c\", \"timestamp\": 1665053637.263945}",
        "{\"amount\": 0.001, \"sender_wallet\": \"960c41cb34f68496ccc961676c5d3831fa07bc967fd6f48b151fd53077fce21e\", \"private_key\": \"d56a5b9688709aed69a7befa5caa09a868b9020a5a3984baae4bd0cfb9766c48\", \"receiver_wallet\": \"b8644980b52cb08dff778a639522cb4ff6b0a3a38129fd2cbd54b0b842c708ef\", \"tx\": \"0610c1d3592a33bbd0b44082e8834b36bc71808e18252390b09a7cdede12716b\", \"timestamp\": 1665124124.316878}",
        "{\"amount\": 0.001, \"sender_wallet\": \"960c41cb34f68496ccc961676c5d3831fa07bc967fd6f48b151fd53077fce21e\", \"private_key\": \"d56a5b9688709aed69a7befa5caa09a868b9020a5a3984baae4bd0cfb9766c48\", \"receiver_wallet\": \"b8644980b52cb08dff778a639522cb4ff6b0a3a38129fd2cbd54b0b842c708ef\", \"tx\": \"1046cec5373385f59856e2763c758df27ad55946480938b7083fc27ae276cfdb\", \"timestamp\": 1665124307.9876215}",
        "{\"amount\": 0.001, \"sender_wallet\": \"960c41cb34f68496ccc961676c5d3831fa07bc967fd6f48b151fd53077fce21e\", \"private_key\": \"d56a5b9688709aed69a7befa5caa09a868b9020a5a3984baae4bd0cfb9766c48\", \"receiver_wallet\": \"b8644980b52cb08dff778a639522cb4ff6b0a3a38129fd2cbd54b0b842c708ef\", \"tx\": \"93332f50a888f79abf162d6ca0f6676578b59c1f11125a5d8980fa10557ec8ea\", \"timestamp\": 1665124327.210156}",
        "{\"amount\": 0.0001, \"sender_wallet\": \"92de9a3fb140b5ce987eea342457501b18d7d255e8dc9ac952e4dc32019feff7\", \"private_key\": \"7f34797d20d36b2a7536cc0258da36e5ffe67f1ce2443888bbdcd27997f49406\", \"receiver_wallet\": \"154b64b1d36edba47fd40aa8380c084574a2d3d506b1dd8ba1c6dc6716c33184\", \"tx\": \"6f4d1789a85d6490162b0eafcc1febb1f4155277d35e7b0829bda4799282a332\", \"timestamp\": 1665133566.0426168}"
    ]
}