{
  "navigation": [
    {
      "icon": "",
      "name": "Ico",
      "route": "/ico"
    },
    {
      "icon": "",
      "name": "Explorer",
      "route": "/explorer"
    },
    {
      "icon": "",
      "name": "Roadmap",
      "route": "/roadmap"
    },
    {
      "icon": "",
      "name": "Blog",
      "route": "/blog"
    },
    {
      "icon": "",
      "name": "Contact",
      "route": "/contact"
    }
  ]
}
