{
  "roadmap": [
    {
      "title": "Platform Launch",
      "date": "Septemper 22th",
      "description": "At vero eos et accusamus et iusto odio dignissimos ducimus qui blanditiis praesentium At vero eos et accusamus et iusto odio dignissimos ducimus qui blanditiis praesentium",
      "link": {
        "title": "Read Techpaper",
        "url": "#"
      }
    },
    {
      "title": "Presales starts",
      "date": "February 28th",
      "description": "At vero eos et accusamus et iusto odio dignissimos ducimus qui blanditiis praesentium At vero eos et accusamus et iusto odio dignissimos ducimus qui blanditiis praesentium",
      "link": {
        "title": "Read Whitepaper",
        "url": "#"
      }
    },
    {
      "title": "Klaus liebt Gabi",
      "date": "May 24th",
      "description": "At vero eos et accusamus et iusto odio dignissimos ducimus qui blanditiis praesentium At vero eos et accusamus et iusto odio dignissimos ducimus qui blanditiis praesentium"
    }
  ]
}
